<?xml version="1.0" encoding="UTF-8" standalone="no"?>
<svg xmlns:rdf="http://www.w3.org/1999/02/22-rdf-syntax-ns#" xmlns="http://www.w3.org/2000/svg" version="1.1" xmlns:cc="http://creativecommons.org/ns#" xmlns:xlink="http://www.w3.org/1999/xlink" viewBox="0 0 16.000689 15.956319" xmlns:dc="http://purl.org/dc/elements/1.1/">
<metadata>
<rdf:RDF>
<cc:Work rdf:about="">
<dc:format>image/svg+xml</dc:format>
<dc:type rdf:resource="http://purl.org/dc/dcmitype/StillImage"/>
</cc:Work>
</rdf:RDF>
</metadata>
<defs>
<linearGradient id="a" y2="28.99122" xlink:href="#c" gradientUnits="userSpaceOnUse" x2="278.5278" gradientTransform="translate(0 .047499)" y1="24.1533" x1="273.1214"/>
<linearGradient id="d" y2="25.59215" xlink:href="#c" gradientUnits="userSpaceOnUse" x2="283.1054" y1="22.03839" x1="279.645"/>
<linearGradient id="b" y2="29.51806" gradientUnits="userSpaceOnUse" x2="276.8348" gradientTransform="translate(.5 1.547499)" y1="24.09611" x1="272.9582">
<stop stop-color="#fffdf8" offset="0"/>
<stop stop-color="#cdccc7" offset="1"/>
</linearGradient>
<linearGradient id="e" y2="21.16041" gradientUnits="userSpaceOnUse" x2="279.4786" y1="25.25768" x1="283.9804">
<stop stop-color="#8ab3df" offset="0"/>
<stop stop-color="#fff" offset="1"/>
</linearGradient>
<linearGradient id="c">
<stop stop-color="#5a5a5a" offset="0"/>
<stop offset="1"/>
</linearGradient>
</defs>
<g transform="translate(-270,-20.086681)">
<path stroke-linejoin="round" style="color:#000000" d="m273.5 21.543h5v10h-8v-7l3-3z" fill-rule="evenodd" transform="translate(4 4)" stroke="url(#a)" stroke-linecap="round" fill="url(#b)"/>
<path stroke-linejoin="round" style="color:#000000" d="m273.5 21.543h5v10h-8v-7l3-3z" fill-rule="evenodd" transform="translate(2 2)" stroke="url(#a)" stroke-linecap="round" fill="url(#b)"/>
<path stroke-linejoin="round" style="color:#000000" d="m273.5 21.543h5v10h-8v-7l3-3z" fill-rule="evenodd" stroke="url(#a)" stroke-linecap="round" fill="url(#b)"/>
<circle stroke-linejoin="round" style="color:#000000" stroke-width=".7119799" fill-rule="evenodd" stroke-linecap="round" transform="matrix(1.331759,0,0,1.327869,-92.69296,-5.997991)" stroke="url(#d)" cy="23" cx="281" stroke-miterlimit="0" r="3" fill="url(#e)"/>
<path style="color:#000000" fill-rule="evenodd" d="m281 22 1-1v4h-1v-3z"/>
<path style="color:#000000" fill-rule="evenodd" d="m280 23.9955h2v1h-3l1-1z"/>
<path stroke-linejoin="round" d="m270.5 24.543h3v-3l-3 3z" stroke="#646464" stroke-linecap="round" stroke-width="1px" fill="none"/>
</g>
</svg>
