<?xml version="1.0" encoding="UTF-8" standalone="no"?>
<svg xmlns:rdf="http://www.w3.org/1999/02/22-rdf-syntax-ns#" xmlns="http://www.w3.org/2000/svg" version="1.1" xmlns:cc="http://creativecommons.org/ns#" xmlns:xlink="http://www.w3.org/1999/xlink" viewBox="0 0 16.000002 16.000001" xmlns:dc="http://purl.org/dc/elements/1.1/">
<metadata>
<rdf:RDF>
<cc:Work rdf:about="">
<dc:format>image/svg+xml</dc:format>
<dc:type rdf:resource="http://purl.org/dc/dcmitype/StillImage"/>
</cc:Work>
</rdf:RDF>
</metadata>
<defs>
<linearGradient id="d" y2="218.5416" gradientUnits="userSpaceOnUse" x2="173.724" gradientTransform="matrix(1.102855,0,0,1.148517,-167.5042,-41.73143)" y1="209.1406" x1="163.8594">
<stop stop-color="#fffdf8" offset="0"/>
<stop stop-color="#cdccc7" offset="1"/>
</linearGradient>
<linearGradient id="c" y2="217.2552" xlink:href="#a" gradientUnits="userSpaceOnUse" x2="173.0313" gradientTransform="matrix(1.102855,0,0,1.148517,-168.0557,-42.30568)" y1="207.7552" x1="161.2865"/>
<linearGradient id="b" y2="213" xlink:href="#a" gradientUnits="userSpaceOnUse" x2="176" gradientTransform="translate(-150.459,-11.45)" y1="213" x1="160"/>
<linearGradient id="a">
<stop stop-color="#5a5a5a" offset="0"/>
<stop offset="1"/>
</linearGradient>
</defs>
<g transform="translate(-9.9999985,-64.999999)">
<g transform="translate(.959089 -131.05)">
<path stroke-linejoin="round" style="color:#000000" d="m9.54091 196.55h7l4 4v11h-11v-15z" fill-rule="evenodd" stroke="url(#c)" stroke-linecap="square" stroke-width="1.0000011" fill="url(#d)"/>
<path stroke-linejoin="round" d="m16.54091 196.55 4 4h-4v-4z" fill-rule="evenodd" stroke="url(#b)" stroke-linecap="round" stroke-width="1px" fill="#fff"/>
<path d="m10.54091 210.55h9v-9" stroke="#c8c8c8" stroke-linecap="square" stroke-width="1px" fill="none"/>
</g>
<path d="m5.04091 204.05h7v-2l3 2.5-3 2.5v-2h-7v-1z" fill-rule="evenodd" transform="translate(10.95909 -131.05)"/>
</g>
</svg>
