<?xml version="1.0" encoding="UTF-8" standalone="no"?>
<svg xmlns:rdf="http://www.w3.org/1999/02/22-rdf-syntax-ns#" xmlns="http://www.w3.org/2000/svg" version="1.1" xmlns:cc="http://creativecommons.org/ns#" xmlns:xlink="http://www.w3.org/1999/xlink" viewBox="0 0 16.000858 16.001566" xmlns:dc="http://purl.org/dc/elements/1.1/">
<metadata>
<rdf:RDF>
<cc:Work rdf:about="">
<dc:format>image/svg+xml</dc:format>
<dc:type rdf:resource="http://purl.org/dc/dcmitype/StillImage"/>
</cc:Work>
</rdf:RDF>
</metadata>
<defs>
<linearGradient id="f" y2="46.339" gradientUnits="userSpaceOnUse" x2="414.2602" gradientTransform="matrix(1.001797 0 0 .906445 -290.1978 295.2598)" y1="46.33899" x1="404.6787">
<stop stop-color="#fff" offset="0"/>
<stop stop-color="#98b6d3" offset="1"/>
</linearGradient>
<linearGradient id="c" y2="217.2552" xlink:href="#a" gradientUnits="userSpaceOnUse" x2="173.0313" gradientTransform="matrix(1.102855,0,0,1.148517,-165.0966,-125.3557)" y1="207.7552" x1="161.2865"/>
<linearGradient id="b">
<stop stop-color="#fffdf8" offset="0"/>
<stop stop-color="#cdccc7" offset="1"/>
</linearGradient>
<linearGradient id="g" y2="350.1636" xlink:href="#b" gradientUnits="userSpaceOnUse" x2="130.3522" y1="343.258" x1="121.1177"/>
<linearGradient id="a">
<stop stop-color="#5a5a5a" offset="0"/>
<stop offset="1"/>
</linearGradient>
<linearGradient id="e" y2="213" xlink:href="#a" gradientUnits="userSpaceOnUse" x2="176" gradientTransform="translate(-147.4999,-94.5)" y1="213" x1="160"/>
<linearGradient id="d" y2="218.5416" xlink:href="#b" gradientUnits="userSpaceOnUse" x2="173.724" gradientTransform="matrix(1.102855,0,0,1.148517,-164.5451,-124.7814)" y1="209.1406" x1="163.8594"/>
</defs>
<g transform="translate(-9.9999165,-108.00073)">
<g stroke-linejoin="round" stroke="#000" stroke-linecap="round" transform="matrix(1 0 0 .996869 -105.057 -226.2067)" fill-rule="evenodd">
<rect style="color:#000000" height="11.99987" width="14.99917" y="338.8083" x="115.5577" stroke-width="1.0015693" fill="url(#g)"/>
<rect style="color:#000000" height="3.011261" width="14.99819" y="335.7579" x="115.5588" stroke-width="1.0015692" fill="url(#f)"/>
</g>
<path stroke-linejoin="round" style="color:#000000" d="m12.5 122.5v-9h7l4 4v5" fill-rule="evenodd" stroke="url(#c)" stroke-linecap="square" stroke-width="1.0000011" fill="url(#d)"/>
<path stroke-linejoin="round" d="m19.5 113.5 4 4h-4v-4z" fill-rule="evenodd" stroke="url(#e)" stroke-linecap="round" stroke-width="1px" fill="#fff"/>
<path d="m22.5 122.5v-4" stroke="#c8c8c8" stroke-linecap="square" stroke-width="1px" fill="none"/>
</g>
</svg>
