<?xml version="1.0" encoding="UTF-8" standalone="no"?>
<svg xmlns:rdf="http://www.w3.org/1999/02/22-rdf-syntax-ns#" xmlns="http://www.w3.org/2000/svg" version="1.1" xmlns:cc="http://creativecommons.org/ns#" viewBox="0 0 16 16" xmlns:dc="http://purl.org/dc/elements/1.1/">
<metadata>
<rdf:RDF>
<cc:Work rdf:about="">
<dc:format>image/svg+xml</dc:format>
<dc:type rdf:resource="http://purl.org/dc/dcmitype/StillImage"/>
</cc:Work>
</rdf:RDF>
</metadata>
<g transform="translate(45,-175)">
<rect style="color:#000000" height="16" width="16" y="175" x="-45" fill="none"/>
<path stroke-linejoin="round" d="m-44.41109 187.5h14.91109" transform="translate(-.0651068 -.0534998)" stroke="#646464" stroke-linecap="round" stroke-miterlimit="0" stroke-width="1.0000004" fill="none"/>
<rect stroke-linejoin="round" style="color:#000000" fill-rule="evenodd" fill-opacity=".3921569" height="5.968238" width="5.006888" stroke="#8686e5" stroke-linecap="round" stroke-miterlimit="0" y="184.5076" x="-39.506" stroke-width="1.0000001" fill="#6464ff"/>
<path fill-rule="evenodd" d="m-33 178v2h-8v-2h8z"/>
</g>
</svg>
