<?xml version="1.0" encoding="UTF-8" standalone="no"?>
<svg xmlns:rdf="http://www.w3.org/1999/02/22-rdf-syntax-ns#" xmlns="http://www.w3.org/2000/svg" version="1.1" xmlns:cc="http://creativecommons.org/ns#" xmlns:xlink="http://www.w3.org/1999/xlink" viewBox="0 0 14.830774 15.125054" xmlns:dc="http://purl.org/dc/elements/1.1/">
<metadata>
<rdf:RDF>
<cc:Work rdf:about="">
<dc:format>image/svg+xml</dc:format>
<dc:type rdf:resource="http://purl.org/dc/dcmitype/StillImage"/>
</cc:Work>
</rdf:RDF>
</metadata>
<g stroke="#ffffff" transform="translate(-372.48857,-136.97346)">
<circle id="a" style="color:#000000" stroke-width=".2773579" transform="matrix(1.20571,0,0,1.20571,-78.25832,-27.88514)" stroke="#fff" cy="137.9821" cx="375.0941" r="1.111868"/>
<use xlink:href="#a" transform="matrix(.9860759 0 0 .9860759 14.06913 1.928293)" height="1250" width="1250" y="0" x="0" stroke-width=".2812746"/>
<use xlink:href="#a" transform="matrix(.9791266 0 0 .9791266 19.62171 5.917923)" height="1250" width="1250" y="0" x="0" stroke-width=".2832711"/>
<use xlink:href="#a" transform="matrix(.9025255 0 0 .9025255 48.27027 19.55311)" height="1250" width="1250" y="0" x="0" stroke-width=".3073135"/>
<use xlink:href="#a" transform="matrix(.9860707 0 0 .9860707 8.163368 1.928972)" height="1250" width="1250" y="0" x="0" stroke-width=".2812758"/>
<use xlink:href="#a" transform="translate(11.81518)" height="1250" width="1250" y="0" x="0" stroke-width=".2773579"/>
<use xlink:href="#a" transform="matrix(.9068615 0 0 .9068615 34.83344 18.95266)" height="1250" width="1250" y="0" x="0" stroke-width=".3058435"/>
<use xlink:href="#a" transform="matrix(.9828022 0 0 .9828022 6.431961 11.46371)" height="1250" width="1250" y="0" x="0" stroke-width=".2822113"/>
<use xlink:href="#a" transform="matrix(.9220478 0 0 .9220478 35.06151 10.79493)" height="1250" width="1250" y="0" x="0" stroke-width=".3008064"/>
<use xlink:href="#a" transform="matrix(.9801935 0 0 .9801935 7.407717 5.770255)" height="1250" width="1250" y="0" x="0" stroke-width=".2829629"/>
<use xlink:href="#a" transform="matrix(.6146776 0 0 .6146776 147.0627 56.38727)" height="1250" width="1250" y="0" x="0" stroke-width=".451224"/>
<use xlink:href="#a" transform="matrix(.6232617 0 0 .6232617 143.8529 61.25332)" height="1250" width="1250" y="0" x="0" stroke-width=".4450105"/>
<use xlink:href="#a" transform="matrix(.4296546 0 0 .4296546 219.2145 82.00947)" height="1250" width="1250" y="0" x="0" stroke-width=".645537"/>
<use xlink:href="#a" transform="matrix(.6112925 0 0 .6112925 154.2364 56.85603)" height="1250" width="1250" y="0" x="0" stroke-width=".4537236"/>
<use xlink:href="#a" transform="matrix(.4261003 0 0 .4261003 217.5898 85.52904)" height="1250" width="1250" y="0" x="0" stroke-width=".6509216"/>
<use xlink:href="#a" transform="matrix(.4378052 0 0 .4378052 216.1661 86.93554)" height="1250" width="1250" y="0" x="0" stroke-width=".633519"/>
<use xlink:href="#a" transform="matrix(.256807 0 0 .256807 283.8591 108.9729)" height="1250" width="1250" y="0" x="0" stroke-width="1.0800228"/>
<use xlink:href="#a" transform="matrix(.4222839 0 0 .4222839 224.9252 86.0576)" height="1250" width="1250" y="0" x="0" stroke-width=".6568049"/>
<use xlink:href="#a" transform="matrix(.6190024 0 0 .6190024 151.3531 61.84314)" height="1250" width="1250" y="0" x="0" stroke-width=".4480718"/>
<use xlink:href="#a" transform="matrix(.9884129 0 0 .9884129 13.19493 13.71404)" height="1250" width="1250" y="0" x="0" stroke-width=".2806096"/>
<use xlink:href="#a" transform="matrix(.9803125 0 0 .9803125 19.17819 11.80843)" height="1250" width="1250" y="0" x="0" stroke-width=".2829278"/>
<use xlink:href="#a" transform="translate(0,12.10946)" height="1250" width="1250" y="0" x="0" stroke-width=".2773579"/>
<use xlink:href="#a" transform="matrix(.9897789 0 0 .9897789 6.776422 13.52485)" height="1250" width="1250" y="0" x="0" stroke-width=".2802223"/>
<use xlink:href="#a" transform="matrix(.9302193 0 0 .9302193 32.00541 21.7728)" height="1250" width="1250" y="0" x="0" stroke-width=".2981642"/>
<use xlink:href="#a" transform="translate(11.81518,12.10946)" height="1250" width="1250" y="0" x="0" stroke-width=".2773579"/>
</g>
</svg>
