<?xml version="1.0" encoding="UTF-8" standalone="no"?>
<svg xmlns:rdf="http://www.w3.org/1999/02/22-rdf-syntax-ns#" xmlns="http://www.w3.org/2000/svg" version="1.1" xmlns:cc="http://creativecommons.org/ns#" viewBox="0 0 16.602538 16.562858" xmlns:dc="http://purl.org/dc/elements/1.1/">
<metadata>
<rdf:RDF>
<cc:Work rdf:about="">
<dc:format>image/svg+xml</dc:format>
<dc:type rdf:resource="http://purl.org/dc/dcmitype/StillImage"/>
</cc:Work>
</rdf:RDF>
</metadata>
<g transform="matrix(.6666666 0 0 .6666666 73.66062 -119.63329)">
<rect style="color:#000000" height="24" width="24" y="180" x="-110" fill="none"/>
<path d="m-107.5 202c-0.5-8 0.6365-12.357 3.9649-15.4022 2.9375-2.6875 7.5351-4.5978 15.5351-4.0978" stroke="#646464" stroke-width="2.2500002" fill="none"/>
<rect stroke-linejoin="round" style="color:#000000" fill-rule="evenodd" fill-opacity=".3921569" height="5.996136" width="6.117705" stroke="#00f" stroke-linecap="round" stroke-miterlimit="0" y="183.5039" x="-106.5" stroke-width="1.5000001" fill="#00f"/>
<rect stroke-linejoin="round" style="color:#000000" fill-rule="evenodd" fill-opacity=".3921569" height="4.801509" width="4.799528" stroke="#6464ff" stroke-linecap="round" stroke-miterlimit="0" y="198.8925" x="-109.8907" stroke-width="1.2004722" fill="#6464ff"/>
<rect stroke-linejoin="round" style="color:#000000" fill-rule="evenodd" fill-opacity=".3921569" transform="matrix(1.200473,0,0,1.200473,40.4649,-59.44417)" height="3.999682" width="3.998032" stroke="#6464ff" stroke-linecap="round" stroke-miterlimit="0" y="199.5" x="-109.5" stroke-width=".9999995" fill="#6464ff"/>
</g>
</svg>
