<?xml version="1.0" encoding="UTF-8" standalone="no"?>
<svg xmlns:rdf="http://www.w3.org/1999/02/22-rdf-syntax-ns#" xmlns="http://www.w3.org/2000/svg" version="1.1" xmlns:cc="http://creativecommons.org/ns#" viewBox="0 0 16 16" xmlns:dc="http://purl.org/dc/elements/1.1/">
<metadata>
<rdf:RDF>
<cc:Work rdf:about="">
<dc:format>image/svg+xml</dc:format>
<dc:type rdf:resource="http://purl.org/dc/dcmitype/StillImage"/>
</cc:Work>
</rdf:RDF>
</metadata>
<g transform="translate(-710,-30.00057)" fill="none">
<rect style="color:#000000" height="16" width="16" y="30.00057" x="710" stroke-width=".1"/>
<path stroke-linejoin="round" style="color:#000000" d="m725 39s0 5-7 5c4-5 2.25-8-0.5-9.75s-6.5-2.25-6.5-2.25" stroke="#646464" stroke-linecap="round" stroke-miterlimit="0" stroke-width="1.0000002"/>
<path stroke-linejoin="round" style="color:#000000" d="m725 39.00001s0 5-7 5c4-5 2.25-8-0.5-9.75s-6.5-2.25-6.5-2.25" stroke="#008000" stroke-linecap="round" stroke-miterlimit="0" stroke-width="1.0000002"/>
</g>
</svg>
