<?xml version="1.0" encoding="UTF-8" standalone="no"?>
<svg xmlns:rdf="http://www.w3.org/1999/02/22-rdf-syntax-ns#" xmlns="http://www.w3.org/2000/svg" version="1.1" xmlns:cc="http://creativecommons.org/ns#" viewBox="0 0 16.062537 16.062492" xmlns:dc="http://purl.org/dc/elements/1.1/">
<metadata>
<rdf:RDF>
<cc:Work rdf:about="">
<dc:format>image/svg+xml</dc:format>
<dc:type rdf:resource="http://purl.org/dc/dcmitype/StillImage"/>
</cc:Work>
</rdf:RDF>
</metadata>
<g transform="translate(-620,-30)">
<rect style="color:#000000" height="16" width="16" y="30" x="620" stroke-width=".1" fill="none"/>
<rect style="color:#000000" height="16" width="16" y="30.00057" x="620" stroke-width=".1" fill="none"/>
<rect stroke-linejoin="round" style="color:#000000" fill-rule="evenodd" fill-opacity=".3921569" transform="rotate(-45)" height="3.621212" width="3.584063" stroke="#00f" stroke-linecap="round" stroke-miterlimit="0" y="462.0515" x="415.401" stroke-width=".9051017" fill="#6464ff"/>
<rect stroke-linejoin="round" style="color:#000000" fill-rule="evenodd" fill-opacity=".3921569" transform="rotate(-45)" height="3.621212" width="3.584063" stroke="#008000" stroke-linecap="round" stroke-miterlimit="0" y="476.282" x="415.401" stroke-width=".9051017" fill="#6464ff"/>
<path style="color:#000000" stroke-width="1px" d="m631 41v-4l-4 4h4"/>
<rect transform="rotate(-45)" height="7.962208" width="1" y="466.7135" x="416.693"/>
</g>
</svg>
