<?xml version="1.0" encoding="UTF-8" standalone="no"?>
<svg xmlns:rdf="http://www.w3.org/1999/02/22-rdf-syntax-ns#" xmlns="http://www.w3.org/2000/svg" version="1.1" xmlns:cc="http://creativecommons.org/ns#" xmlns:xlink="http://www.w3.org/1999/xlink" viewBox="0 0 20.014918 22.943162" xmlns:dc="http://purl.org/dc/elements/1.1/">
<metadata>
<rdf:RDF>
<cc:Work rdf:about="">
<dc:format>image/svg+xml</dc:format>
<dc:type rdf:resource="http://purl.org/dc/dcmitype/StillImage"/>
</cc:Work>
</rdf:RDF>
</metadata>
<defs>
<linearGradient id="b" y2="188.4128" xlink:href="#a" gradientUnits="userSpaceOnUse" x2="176.8627" gradientTransform="matrix(.809546 0 0 .809417 -240.0191 332.4799)" y1="157.8208" x1="144.0824"/>
<linearGradient id="a">
<stop stop-color="#fff" offset="0"/>
<stop stop-color="#f3b698" offset="1"/>
</linearGradient>
<linearGradient id="c" y2="234.0031" xlink:href="#a" gradientUnits="userSpaceOnUse" x2="112.201" gradientTransform="matrix(1.13356,0,0,1.133368,-243.4437,205.1983)" y1="221.0688" x1="101.0939"/>
</defs>
<g transform="matrix(0,1,1,0,-116.9966,-450.53252)">
<rect stroke-linejoin="round" fill-rule="evenodd" transform="matrix(-.5 .8660254 .8660254 .5 0 0)" height="17" width="9" stroke="url(#b)" stroke-miterlimit="0" y="455.1053" x="-125.5174" stroke-width=".9999998" fill="url(#c)"/>
<g stroke="#000" stroke-linecap="round" transform="matrix(-.5 .8660254 .8660254 .5 583.0174 -336.6053)" fill="none">
<rect stroke-linejoin="round" height="18.99178" width="10.99167" stroke-miterlimit="0" y="117.5082" x="456.5083"/>
<g stroke-width="1px" transform="matrix(-.5 -.8660254 -.8660254 .5 827.0362 462.4495)">
<path d="m468.4443 154.4562 1 1.7321"/>
<path d="m469.1764 151.7242l2 3.4641"/>
<path d="m471.9085 152.4562 1 1.7321"/>
<path d="m472.6405 149.7242l2 3.4641"/>
<path d="m475.3726 150.4562 0.9999 1.7321"/>
<path d="m476.1046 147.7242l2 3.4641"/>
<path d="m478.8367 148.4562 1 1.7321"/>
<path d="m479.5687 145.7242l2 3.4641"/>
</g>
</g>
</g>
</svg>
